      ___           ___           ___           ___           ___           ___           ___           ___     
     |\__\         /\  \         /\__\         /\  \         /\  \         /\  \         /\  \         /\  \    
     |:|  |       /::\  \       /::|  |       /::\  \       /::\  \        \:\  \       /::\  \       /::\  \   
     |:|  |      /:/\:\  \     /:|:|  |      /:/\:\  \     /:/\ \  \        \:\  \     /:/\:\  \     /:/\:\  \  
     |:|__|__   /::\~\:\  \   /:/|:|  |__   /:/  \:\  \   _\:\~\ \  \       /::\  \   /::\~\:\  \   /::\~\:\  \ 
     /::::\__\ /:/\:\ \:\__\ /:/ |:| /\__\ /:/__/_\:\__\ /\ \:\ \ \__\     /:/\:\__\ /:/\:\ \:\__\ /:/\:\ \:\__\
    /:/~~/~    \/__\:\/:/  / \/__|:|/:/  / \:\  /\ \/__/ \:\ \:\ \/__/    /:/  \/__/ \:\~\:\ \/__/ \/_|::\/:/  /
   /:/  /           \::/  /      |:/:/  /   \:\ \:\__\    \:\ \:\__\     /:/  /       \:\ \:\__\      |:|::/  / 
   \/__/            /:/  /       |::/  /     \:\/:/  /     \:\/:/  /     \/__/         \:\ \/__/      |:|\/__/  
                   /:/  /        /:/  /       \::/  /       \::/  /                     \:\__\        |:|  |    
                   \/__/         \/__/         \/__/         \/__/                       \/__/         \|__|    

https://myangster@bitbucket.org/myangster/portfolio.git
=======================================================

//Hello world!

Welcome to my personal portfolio!

My BitBucket user page is at:
https://myangster@bitbucket.org/myangster

you can checkout my website at:
http://students.washington.edu/yangm17/GIT_REPO/portfolio/website

Thank you
